8bb4bb3f890f75e88d72895bc30941b1  101-44495505-441_S101_L001_R1_001.fastq.gz
a66266b4aa3ef7dc75dbe49a09231f4b  101-44495505-441_S101_L001_R2_001.fastq.gz
f88d6c594bcc32ed70b3d7a5c4156106  102-44493616-442_S102_L001_R1_001.fastq.gz
6dd59a7c4714823761fa0f09b4210383  102-44493616-442_S102_L001_R2_001.fastq.gz
27477d504d52f691360156daf25462b9  10-44484733-430-R_S10_L001_R1_001.fastq.gz
60fc0108153102d5c98b31c656a8d19c  10-44484733-430-R_S10_L001_R2_001.fastq.gz
23f7c4291de39459feb953c876ec0ce5  105-44501476-445_S105_L001_R1_001.fastq.gz
9916d6c82451fccc5c30bf0e57744539  105-44501476-445_S105_L001_R2_001.fastq.gz
f69e8b25892a3d344f957bd6a65756d2  106-44492616-446_S106_L001_R1_001.fastq.gz
9de8f016916bb087d5c4535f6e9e0506  106-44492616-446_S106_L001_R2_001.fastq.gz
0bfbd68a0fb195a73ff91b508034091c  124-44500508-464_S124_L001_R1_001.fastq.gz
b08ced2dbfeeedb19dd6440f09daa616  124-44500508-464_S124_L001_R2_001.fastq.gz
c138939f8de194bf20655c98eaaac3f8  125-44495521-465_S125_L001_R1_001.fastq.gz
d4b28f9ce075983360ee17919ad1b4f1  125-44495521-465_S125_L001_R2_001.fastq.gz
04fc3b9a19d8673fb096b8462402c5b7  141-44480764-481_S141_L001_R1_001.fastq.gz
cd8ce5f8e628d3c7b597dcc549c94eff  141-44480764-481_S141_L001_R2_001.fastq.gz
cf72c13da610f7e9e80996a3a741dfd7  142-44504497-482_S142_L001_R1_001.fastq.gz
b3abc9545b5337507762ef741b7e8670  142-44504497-482_S142_L001_R2_001.fastq.gz
a89e4f83e7934dc51d75868f1befecb3  144-44498515-484_S144_L001_R1_001.fastq.gz
b9853a8935bd49645749723d4fd9cd7c  144-44498515-484_S144_L001_R2_001.fastq.gz
b4e3fa391ee37f035f3a5c1590157b78  14-44496499-434-R_S14_L001_R1_001.fastq.gz
cd0ec8eee0d0f14c918906d2a7cdcfd7  14-44496499-434-R_S14_L001_R2_001.fastq.gz
e8c6660ddd793a1232dde5d933f341c4  163-44490638-503_S163_L001_R1_001.fastq.gz
632811e548b7b0f27b524fe28e234840  163-44490638-503_S163_L001_R2_001.fastq.gz
998ea80c1b6d6a5e687a2c0290798dbe  21-44484742-441-R_S21_L001_R1_001.fastq.gz
4d85def6a66551ccd1146c7cb2cbe171  21-44484742-441-R_S21_L001_R2_001.fastq.gz
71b97902392ec7564b1570d3e1f92c66  22-44484743-442-R_S22_L001_R1_001.fastq.gz
0af8e02bf2b2ea94a477c573e5b8f74b  22-44484743-442-R_S22_L001_R2_001.fastq.gz
9ac7b9bafd59957cf97857591da2b0a9  25-44499478-445-R_S25_L001_R1_001.fastq.gz
99af6216cd38cc1e8ca0275c27e80d23  25-44499478-445-R_S25_L001_R2_001.fastq.gz
a853027f7e547721f5e968f5aae7af1e  26-44493619-446-R_S26_L001_R1_001.fastq.gz
f2e8001fb6c35bfbd94d889c29b13b5b  26-44493619-446-R_S26_L001_R2_001.fastq.gz
cc9b903d2fb443c66920e65a76c4ff8c  44-44503478-464-R_S44_L001_R1_001.fastq.gz
c5c13faf7d4db479f7796728cd7b70bb  44-44503478-464-R_S44_L001_R2_001.fastq.gz
ec139dce358774cdda01aff7385fd17e  45-44491639-465-R_S45_L001_R1_001.fastq.gz
a62c38865fa05b4841a314b5f7afbead  45-44491639-465-R_S45_L001_R2_001.fastq.gz
471a55cf360a80fd5744a2030e719924  61-44496517-481-R_S61_L001_R1_001.fastq.gz
524d063570b74a9c281383282ff3a99c  61-44496517-481-R_S61_L001_R2_001.fastq.gz
24d0bb7464ff484827478955d6c10dc8  62-44484765-482-R_S62_L001_R1_001.fastq.gz
8d301ebdc51adf56bb1d931fa473c506  62-44484765-482-R_S62_L001_R2_001.fastq.gz
83e30f969e878f68259c1b2116098ee9  64-44498516-484-R_S64_L001_R1_001.fastq.gz
44abb3eaa2557fcd69ef630bb940855e  64-44498516-484-R_S64_L001_R2_001.fastq.gz
fd228433affae7aa38bd80988ffa6e31  71-44495541-503-R_S71_L001_R1_001.fastq.gz
f273dd61d0813bb78fad2bec85dfc65d  71-44495541-503-R_S71_L001_R2_001.fastq.gz
a8f040ec21f4e4d4506a1957767ffa3e  90-44495502-430_S90_L001_R1_001.fastq.gz
9a523ad91205a2c2bb55d1e1f71831d8  90-44495502-430_S90_L001_R2_001.fastq.gz
bc264aa51095e1a02bb63cb15529c1cf  94-44500488-434_S94_L001_R1_001.fastq.gz
4b7df864ebaf7e3595025b9e192f4d27  94-44500488-434_S94_L001_R2_001.fastq.gz
