OTU_Id	X101	X102	X105	X106	X124	X125	X14	X141	X142	X144	X163	X21	X22	X25	X26	X44	X61	X62	X64	X71	X90	X94
k__Archaea;p__Euryarchaeota;c__Methanomicrobia	0.0	0.0	0.0	0.0	0.0	0.0	0.0	0.0	0.0	9.33333333333e-05	0.0	0.0	0.0	0.0	0.0	0.0	0.0	0.0	0.000155	0.0	0.0	7.33333333333e-05
k__Bacteria;Other;Other	0.0112116666667	0.00814166666667	0.012435	0.0131533333333	0.00973166666667	0.00919166666667	0.00950333333333	0.00758166666667	0.0100916666667	0.01029	0.00869833333333	0.00931166666667	0.00662333333333	0.00353833333333	0.0124916666667	0.00838	0.00528666666667	0.001635	0.01108	0.00211	0.000113333333333	0.00922
k__Bacteria;p__AD3;c__ABS-6	0.000161666666667	7.33333333333e-05	7.83333333333e-05	0.0	0.000203333333333	6.16666666667e-05	0.0	6.66666666667e-05	0.0	4.66666666667e-05	0.0	0.0	0.0	0.0	0.0	0.0	8.33333333333e-05	0.0	0.0	6.83333333333e-05	0.0	0.0
k__Bacteria;p__AD3;c__JG37-AG-4	0.000311666666667	0.000353333333333	7.66666666667e-05	7e-05	0.000191666666667	0.000365	0.000218333333333	0.000911666666667	0.0005	0.0001	0.00038	0.000711666666667	0.000416666666667	0.000105	0.0	0.000206666666667	0.001615	0.001305	0.000178333333333	5e-05	0.0	0.000181666666667
k__Bacteria;p__Acidobacteria;Other	7.66666666667e-05	0.000375	0.0	6.33333333333e-05	0.000275	0.0	0.0	0.000293333333333	0.00018	0.000211666666667	0.000105	0.000175	0.00017	0.000111666666667	0.0	0.0	0.0	0.0	0.00025	0.0	0.0	0.000158333333333
k__Bacteria;p__Acidobacteria;c__Acidobacteria-5	0.000248333333333	0.000143333333333	0.00032	0.000513333333333	0.000273333333333	5.33333333333e-05	0.0	0.000238333333333	0.000356666666667	0.000821666666667	0.000453333333333	0.0	5.16666666667e-05	0.0	0.000148333333333	0.0	0.000138333333333	0.000331666666667	0.0	0.000241666666667	7.5e-05	0.000185
k__Bacteria;p__Acidobacteria;c__Acidobacteria-6	0.00691666666667	0.00820166666667	0.00823666666667	0.00914	0.00994333333333	0.00906166666667	0.00160166666667	0.009995	0.00673833333333	0.009415	0.00948166666667	0.00167666666667	0.00142333333333	0.00312666666667	0.002115	0.00288833333333	0.004425	0.004955	0.00591666666667	0.004295	0.00225666666667	0.00718666666667
k__Bacteria;p__Acidobacteria;c__Acidobacteriia	0.011865	0.0106066666667	0.01552	0.0122383333333	0.011405	0.0147016666667	0.00361833333333	0.0181983333333	0.0195766666667	0.0153766666667	0.0116383333333	0.00217	0.00386	0.01457	0.009625	0.005425	0.00638333333333	0.00677833333333	0.00445166666667	0.00416666666667	0.01285	0.00954333333333
k__Bacteria;p__Acidobacteria;c__BPC102	0.0	0.0	0.0	0.0	0.0	0.0	0.0	0.0	0.0	0.0	0.0	5.83333333333e-05	6.33333333333e-05	0.0	0.0	0.0	0.0	0.0	0.0	0.0	0.0	0.0
k__Bacteria;p__Acidobacteria;c__DA052	0.001815	0.001615	0.000866666666667	0.00234666666667	0.00200333333333	0.00175666666667	0.00411	0.00583166666667	0.00340666666667	0.00208833333333	0.00183666666667	0.00603833333333	0.00129666666667	0.00154	0.0027	0.00388	0.006305	0.00432166666667	0.00409666666667	0.00212833333333	0.00282166666667	0.00158
k__Bacteria;p__Acidobacteria;c__EC1113	0.0	0.0	0.0	0.0	9e-05	6.16666666667e-05	0.0	0.0	0.0	0.0	0.0	0.0	0.0	0.0	0.0	0.0	0.0	0.0	0.0	0.0	0.0	0.0
k__Bacteria;p__Acidobacteria;c__Holophagae	0.0	0.0	8.66666666667e-05	0.0	0.0	0.0	0.0	0.0	0.0	0.0	0.0	0.0	0.000168333333333	0.00160666666667	0.0	0.0	0.0	5.83333333333e-05	0.00015	0.0	0.0	0.0
k__Bacteria;p__Acidobacteria;c__Solibacteres	0.0348233333333	0.0353816666667	0.0432616666667	0.0374483333333	0.0530783333333	0.0478733333333	0.0533216666667	0.0753683333333	0.0629783333333	0.0596583333333	0.0491016666667	0.0502016666667	0.0719416666667	0.103018333333	0.0907133333333	0.0949316666667	0.11988	0.07995	0.0990916666667	0.04494	0.0252166666667	0.041805
k__Bacteria;p__Acidobacteria;c__TM1	0.00013	7e-05	0.000151666666667	0.0	0.000103333333333	6e-05	0.0	6e-05	0.000105	0.000113333333333	0.0	0.0	0.0	0.0	0.0	0.0	0.000141666666667	0.000116666666667	0.0	0.000115	0.00016	7.5e-05
k__Bacteria;p__Acidobacteria;c__[Chloracidobacteria]	0.000251666666667	0.0	0.000243333333333	0.000246666666667	9e-05	5.83333333333e-05	0.000101666666667	0.000106666666667	0.0	0.000165	0.000196666666667	0.000113333333333	5e-05	0.0	0.0	0.000305	0.0	0.000108333333333	8.33333333333e-05	0.000103333333333	0.0	0.0003
k__Bacteria;p__Acidobacteria;c__iii1-8	0.0	0.000198333333333	0.00018	0.000116666666667	0.0	0.000123333333333	0.000118333333333	0.000135	0.00012	4e-05	0.000103333333333	0.0	0.0	0.0	0.0	0.0	0.0	0.000163333333333	0.00024	4.33333333333e-05	4.33333333333e-05	0.0
k__Bacteria;p__Actinobacteria;Other	0.00273166666667	0.00223	0.00294166666667	0.00219666666667	0.00245666666667	0.00181833333333	0.000628333333333	0.00177333333333	0.001255	0.00149666666667	0.00306166666667	0.000668333333333	0.000261666666667	0.00054	0.000458333333333	0.00059	0.000286666666667	0.0	0.000486666666667	0.0	0.0	0.00311666666667
k__Bacteria;p__Actinobacteria;c__Acidimicrobiia	0.0484166666667	0.0267816666667	0.02876	0.0269	0.036295	0.0347866666667	0.00246666666667	0.023795	0.023815	0.0297733333333	0.0385783333333	0.00931666666667	0.00240333333333	0.006055	0.003945	0.00711333333333	0.00853666666667	0.00813333333333	0.0161	0.00716	0.0177283333333	0.0297283333333
k__Bacteria;p__Actinobacteria;c__Actinobacteria	0.0250216666667	0.0319716666667	0.02897	0.0192833333333	0.0230433333333	0.02387	0.00206	0.03427	0.042075	0.0341116666667	0.026575	0.00412	0.00263166666667	0.00409666666667	0.003295	0.00258333333333	0.011375	0.00939166666667	0.00911833333333	0.00521333333333	0.0114983333333	0.02982
k__Bacteria;p__Actinobacteria;c__OPB41	0.0	0.0	0.00023	0.0	0.0	0.0	0.0	0.0	0.0	0.000116666666667	0.0	0.0	0.0	0.000118333333333	0.0	0.0	0.0	0.0	8.83333333333e-05	0.0	0.0	0.0
k__Bacteria;p__Actinobacteria;c__Thermoleophilia	0.0229733333333	0.0157733333333	0.01207	0.00886166666667	0.0134	0.0125266666667	0.00317833333333	0.0110616666667	0.00953333333333	0.0102833333333	0.0155016666667	0.0138116666667	0.00602333333333	0.00571666666667	0.00637	0.00445166666667	0.00774833333333	0.00679	0.009535	0.00620666666667	0.00532	0.02137
k__Bacteria;p__Armatimonadetes;c__Armatimonadia	0.000176666666667	0.000286666666667	0.000271666666667	7e-05	0.000103333333333	0.00011	0.005105	0.000213333333333	0.000386666666667	0.000726666666667	0.0	0.000441666666667	0.000446666666667	0.000438333333333	0.0006	0.000113333333333	0.000641666666667	0.000281666666667	0.000435	0.00035	0.000333333333333	0.00117833333333
k__Bacteria;p__Armatimonadetes;c__Chthonomonadetes	8.5e-05	0.000251666666667	0.000136666666667	6.16666666667e-05	0.0	0.000456666666667	9.66666666667e-05	0.00218666666667	0.00121833333333	0.000501666666667	0.000243333333333	0.0	0.0	0.000226666666667	0.0	0.0	0.00201833333333	0.000565	0.000146666666667	0.00014	0.000171666666667	0.000168333333333
k__Bacteria;p__Armatimonadetes;c__[Fimbriimonadia]	0.00081	0.00122833333333	0.00166833333333	0.000851666666667	0.000873333333333	0.00161333333333	0.006945	0.00290166666667	0.00147	0.00185	0.001035	0.00823166666667	0.00742166666667	0.00685	0.00483666666667	0.00831	0.0204666666667	0.00920666666667	0.0118483333333	0.00818333333333	0.00166	0.000861666666667
k__Bacteria;p__BRC1;c__PRR-11	0.000161666666667	5.5e-05	0.0	5e-05	0.0001	0.0	0.0	0.0	0.0	6.66666666667e-05	0.0	6.83333333333e-05	0.000155	9.33333333333e-05	0.0	0.0	7.83333333333e-05	5.33333333333e-05	7.83333333333e-05	8.66666666667e-05	0.0	0.0
k__Bacteria;p__Bacteroidetes;Other	0.00169	0.00353833333333	0.00493	0.00465333333333	0.003045	0.001865	0.00770833333333	0.00338	0.00307833333333	0.00260833333333	0.00276833333333	0.00682333333333	0.008865	0.002085	0.00698	0.00628166666667	0.00432166666667	0.00224833333333	0.00621166666667	0.00314833333333	0.000753333333333	0.00325666666667
k__Bacteria;p__Bacteroidetes;c__At12OctB3	0.00104666666667	0.000311666666667	0.00144333333333	0.000673333333333	0.00041	0.000621666666667	0.00387333333333	0.00116666666667	0.00156166666667	0.000913333333333	0.000491666666667	0.010325	0.00248	0.00207833333333	0.00181666666667	0.00449833333333	0.00290333333333	0.007	0.00402	0.00912666666667	0.002625	0.00031
k__Bacteria;p__Bacteroidetes;c__Bacteroidia	0.00084	0.00702666666667	0.007535	0.00137666666667	0.000628333333333	0.00308	0.00740833333333	0.00234333333333	0.004895	0.00136666666667	0.00246	0.00642333333333	0.0248233333333	0.0127916666667	0.0018	0.00433166666667	0.00472333333333	0.0136883333333	0.00607166666667	0.0145533333333	0.002	0.00126
k__Bacteria;p__Bacteroidetes;c__Cytophagia	8.5e-05	0.000325	0.000155	0.000193333333333	0.000953333333333	0.0	0.00084	4.5e-05	5.5e-05	0.000111666666667	0.000183333333333	0.000638333333333	0.000485	0.000216666666667	0.000151666666667	0.00101	0.000305	0.000528333333333	8.33333333333e-05	0.00107	0.00059	0.000301666666667
k__Bacteria;p__Bacteroidetes;c__Flavobacteriia	0.000163333333333	7e-05	0.000221666666667	0.0	0.0	5.66666666667e-05	0.000806666666667	0.000215	0.0	0.0	8.33333333333e-05	0.00095	6.33333333333e-05	0.0	0.0	0.000211666666667	0.00034	0.0	0.000236666666667	0.000221666666667	0.0	0.000231666666667
k__Bacteria;p__Bacteroidetes;c__Sphingobacteriia	0.060105	0.0538733333333	0.0538583333333	0.06426	0.0530216666667	0.075885	0.138221666667	0.0849233333333	0.0792466666667	0.0564833333333	0.0518033333333	0.151488333333	0.114778333333	0.06341	0.108846666667	0.0818516666667	0.122275	0.129613333333	0.11685	0.168198333333	0.151385	0.107275
k__Bacteria;p__Bacteroidetes;c__[Saprospirae]	0.0306466666667	0.0391433333333	0.0514833333333	0.04403	0.0425333333333	0.0380766666667	0.0669183333333	0.0845533333333	0.0953866666667	0.0400033333333	0.05107	0.0616016666667	0.05244	0.018755	0.0352366666667	0.04496	0.0699716666667	0.0682783333333	0.0661566666667	0.084505	0.05783	0.0470216666667
k__Bacteria;p__Chlamydiae;c__Chlamydiia	0.0540133333333	0.00717	0.0157	0.0104416666667	0.0111683333333	0.0104216666667	0.006605	0.00906833333333	0.029495	0.0212566666667	0.036745	0.0099	0.00998166666667	0.00247166666667	0.00286666666667	0.00656833333333	0.01453	0.0229816666667	0.0152233333333	0.035875	0.0162016666667	0.00670833333333
k__Bacteria;p__Chlorobi;Other	0.0	8.5e-05	0.0	0.0	0.0	0.0	0.0	0.0	0.0	0.0	0.0	0.0	0.0	0.0	0.0	0.000223333333333	0.0	0.000428333333333	0.0	0.0	0.0	0.0
k__Bacteria;p__Chlorobi;c__	0.0102683333333	0.00423333333333	0.00703333333333	0.0128183333333	0.00668333333333	0.00620333333333	0.00636666666667	0.00598833333333	0.0084	0.00677333333333	0.01372	0.00879833333333	0.00270166666667	0.00388333333333	0.00591833333333	0.00515666666667	0.00687	0.00686	0.00711	0.0133333333333	0.0132016666667	0.00555
k__Bacteria;p__Chlorobi;c__BSV26	0.0	0.0	0.0	0.0	0.0	0.0	0.0	0.0	0.0	0.0	0.0	0.0	0.000105	0.0	0.0	0.0	0.0	0.0	0.0	5.16666666667e-05	0.0	0.0
k__Bacteria;p__Chlorobi;c__Ignavibacteria	6.5e-05	0.000163333333333	0.000236666666667	0.0	0.0	7.83333333333e-05	9e-05	0.0	0.0	9.66666666667e-05	0.0001	0.0	5e-05	0.000226666666667	0.0	0.0	0.0	0.000133333333333	0.0	4.66666666667e-05	0.0	0.0
k__Bacteria;p__Chlorobi;c__SJA-28	0.0	0.0	0.0	6.83333333333e-05	0.0	0.0	0.0	0.0	0.0	4.5e-05	0.0	0.0	0.0	0.0	0.00015	0.0	0.0	0.000111666666667	0.0	0.0	0.000525	0.0
k__Bacteria;p__Chloroflexi;Other	0.000175	0.0	0.0	7.16666666667e-05	0.0001	6.33333333333e-05	0.000195	9.66666666667e-05	4.83333333333e-05	0.000271666666667	0.0	6.33333333333e-05	7e-05	0.00011	0.0	0.00023	0.000356666666667	0.000101666666667	7.66666666667e-05	0.00023	0.0	0.0
k__Bacteria;p__Chloroflexi;c__Anaerolineae	0.000838333333333	0.00082	0.00121666666667	0.000666666666667	0.00061	0.000786666666667	0.004035	0.00344166666667	0.00142333333333	0.002415	0.00100166666667	0.000748333333333	0.00300833333333	0.00155	0.00166833333333	0.00283	0.00887333333333	0.00254833333333	0.004995	0.00222333333333	0.000145	0.000641666666667
k__Bacteria;p__Chloroflexi;c__C0119	0.0	0.0	0.0	0.0	0.0	0.0	9.66666666667e-05	0.0	0.0	0.0	0.0	0.0	0.0	0.0	0.0	0.0	0.0	0.0	0.0	0.0	0.0	7.66666666667e-05
k__Bacteria;p__Chloroflexi;c__Ellin6529	0.001435	0.00161166666667	0.001025	0.000866666666667	0.000661666666667	0.00102666666667	0.000798333333333	0.00129666666667	0.000851666666667	0.00136833333333	0.00156	0.001205	0.00055	0.000846666666667	0.000605	0.000205	0.00204	0.00091	0.00174166666667	0.00113666666667	4.33333333333e-05	0.000893333333333
k__Bacteria;p__Chloroflexi;c__P2-11E	0.0	7.66666666667e-05	0.0	0.0	0.0	0.0	0.0	4.5e-05	0.0	0.0	8.33333333333e-05	0.000245	6.66666666667e-05	0.0	0.0	0.000121666666667	0.000138333333333	9.5e-05	8e-05	0.0	0.0	0.0
k__Bacteria;p__Chloroflexi;c__S085	6.66666666667e-05	0.0	0.000238333333333	7.33333333333e-05	0.000396666666667	0.000193333333333	0.0	5.33333333333e-05	0.0	0.000433333333333	0.000288333333333	0.000293333333333	0.000176666666667	0.000326666666667	0.000746666666667	0.000456666666667	0.000213333333333	0.0	0.001835	0.000453333333333	0.0	0.000246666666667
k__Bacteria;p__Chloroflexi;c__TK10	0.0	7.33333333333e-05	0.0	0.0	0.0	0.0	0.0	0.0	0.0	8e-05	0.0	0.00016	0.0	0.000108333333333	0.0	0.0	0.0	0.0	0.000328333333333	0.0	0.0	0.0
k__Bacteria;p__Chloroflexi;c__TK17	0.000145	0.00014	0.000155	0.0	0.000273333333333	0.000116666666667	0.00048	0.000363333333333	0.00017	0.000268333333333	0.0	0.000583333333333	0.000453333333333	0.000446666666667	0.00061	0.00064	0.000583333333333	0.000473333333333	0.000976666666667	0.000828333333333	4e-05	8.33333333333e-05
k__Bacteria;p__Chloroflexi;c__Thermomicrobia	0.0	0.000153333333333	0.000401666666667	7.16666666667e-05	0.000278333333333	0.000318333333333	0.0	0.0	0.000101666666667	0.000315	8.33333333333e-05	0.000185	0.0	0.0	0.0	0.0	0.000155	0.000161666666667	0.0	0.0	0.0	0.000165
k__Bacteria;p__Cyanobacteria;Other	0.0	0.0	0.0	0.0	0.0	0.0	0.0	5.66666666667e-05	0.0	0.0	8e-05	0.0	0.0	0.0	0.0	0.0	0.0	0.0	0.0	0.0	0.0	0.0
k__Bacteria;p__Cyanobacteria;c__4C0d-2	0.000815	0.00137333333333	0.000593333333333	0.00163833333333	0.00105166666667	0.000801666666667	0.00325666666667	0.000346666666667	0.000441666666667	0.000685	0.001065	0.00438166666667	0.00661	0.00345	0.00319166666667	0.00478166666667	0.000486666666667	0.002515	0.00607333333333	0.00419166666667	0.00094	0.000488333333333
k__Bacteria;p__Cyanobacteria;c__Chloroplast	0.00143666666667	0.0115483333333	0.000343333333333	0.000125	0.00867666666667	0.000341666666667	0.00573666666667	0.000288333333333	0.0	0.00127833333333	0.0009	0.000285	0.002255	0.000113333333333	0.0	0.002675	0.000453333333333	9.5e-05	0.000516666666667	0.00104166666667	0.0531233333333	0.00516166666667
k__Bacteria;p__Cyanobacteria;c__ML635J-21	0.0	0.0	0.0	0.0	8.5e-05	0.0	0.00101333333333	0.00028	0.000158333333333	5.33333333333e-05	0.000455	0.000361666666667	0.00035	0.000218333333333	0.000883333333333	0.000453333333333	0.005395	0.00335	0.000733333333333	0.00397166666667	0.000336666666667	0.000171666666667
k__Bacteria;p__Elusimicrobia;c__Elusimicrobia	0.00210666666667	0.00144166666667	0.00262166666667	0.00184	0.00166166666667	0.00174166666667	0.003315	0.001615	0.0013	0.00169	0.00173	0.003395	0.00328	0.00308833333333	0.004695	0.00552833333333	0.000963333333333	0.00175666666667	0.00110333333333	0.00450166666667	0.000713333333333	0.000495
k__Bacteria;p__FBP;c__	0.00140166666667	0.00109166666667	0.00138333333333	0.00166333333333	0.00200833333333	0.00119166666667	0.014615	0.00144166666667	0.00156	0.00132166666667	0.001635	0.0119833333333	0.00295333333333	0.00300666666667	0.004835	0.00996833333333	0.00575	0.00716666666667	0.00837333333333	0.007725	0.000931666666667	0.00181333333333
k__Bacteria;p__FCPU426;c__	0.000525	0.00065	0.00121333333333	0.000725	0.000658333333333	0.000181666666667	0.000645	0.002085	0.000761666666667	0.00117	0.00045	0.00272833333333	0.001115	0.00172666666667	0.00166333333333	0.000761666666667	0.00424166666667	0.00225166666667	0.00377833333333	0.00146666666667	0.000283333333333	0.000556666666667
k__Bacteria;p__Fibrobacteres;c__	8.16666666667e-05	0.000255	0.0	0.0	0.0001	0.000115	0.0	0.0	0.0	0.000115	0.000178333333333	9e-05	0.000113333333333	0.000766666666667	0.0003	0.000473333333333	0.0	0.0	0.000395	0.000966666666667	0.00215166666667	8.5e-05
k__Bacteria;p__Fibrobacteres;c__Fibrobacteria	0.000228333333333	0.000288333333333	0.000221666666667	0.000751666666667	0.00049	0.000398333333333	0.00248333333333	0.00240333333333	0.000998333333333	0.000661666666667	0.00147166666667	0.0	0.0	0.000416666666667	0.000588333333333	0.000436666666667	0.00161333333333	0.000698333333333	8.5e-05	0.00077	4.83333333333e-05	0.00274833333333
k__Bacteria;p__Firmicutes;Other	0.0	0.0	0.0	0.0	0.00019	0.0	0.0	0.0	0.0	0.000116666666667	0.0	7.66666666667e-05	0.0	0.0	0.000151666666667	0.0	0.0	0.0	0.0	0.0	0.0	7.16666666667e-05
k__Bacteria;p__Firmicutes;c__Bacilli	8e-05	8e-05	0.0	0.0	8.83333333333e-05	7.16666666667e-05	9.5e-05	0.0	5.5e-05	0.0	0.0	0.0	6.5e-05	0.0	0.0	0.0	0.0	0.0	0.0	0.000108333333333	8.16666666667e-05	7.33333333333e-05
k__Bacteria;p__Firmicutes;c__Clostridia	0.000408333333333	0.000293333333333	0.000146666666667	0.0	0.0002	0.000106666666667	0.0	0.00016	0.000176666666667	0.000421666666667	0.000355	0.000105	0.00013	0.00035	0.0	0.000106666666667	0.000235	0.000173333333333	0.000245	0.000558333333333	0.000251666666667	0.000181666666667
k__Bacteria;p__GN02;c__3BR-5F	0.0	0.00138333333333	0.000663333333333	0.000556666666667	0.000101666666667	0.000281666666667	0.000616666666667	0.0	9.66666666667e-05	0.000108333333333	0.000288333333333	0.000211666666667	0.00100833333333	0.0	0.000308333333333	0.0	0.000151666666667	0.00032	0.000336666666667	0.000625	0.000178333333333	0.000231666666667
k__Bacteria;p__GN02;c__BD1-5	0.0	0.0	0.001055	0.0	0.0	0.0	0.0	0.0	0.0	0.0	9e-05	0.0	0.000121666666667	0.00035	0.0	0.0	0.0	0.0	0.0	0.0	0.0	0.0
k__Bacteria;p__GN02;c__GKS2-174	0.000325	0.00177	0.00185166666667	0.00378833333333	0.00289333333333	0.00188166666667	0.00152333333333	0.00354166666667	0.00288333333333	0.00531166666667	0.00783833333333	0.000118333333333	0.000588333333333	0.0	0.00089	0.001335	0.000965	0.000548333333333	0.00024	0.00125666666667	0.003835	0.00379166666667
k__Bacteria;p__Gemmatimonadetes;c__Gemm-1	0.00024	0.000415	0.000443333333333	0.000118333333333	0.000276666666667	0.000251666666667	0.0	0.000326666666667	0.00044	0.00042	0.000253333333333	0.000208333333333	0.0	0.000108333333333	0.0	0.0	0.000296666666667	0.000131666666667	0.000301666666667	5.66666666667e-05	0.000138333333333	0.000665
k__Bacteria;p__Gemmatimonadetes;c__Gemm-2	0.0	0.0	0.0	0.0	0.0	6.5e-05	0.0	0.0	0.0	6.16666666667e-05	0.0	6.16666666667e-05	0.0	0.0	0.0	0.0	0.0	0.0	0.0	0.0	0.0	0.0
k__Bacteria;p__Gemmatimonadetes;c__Gemm-5	9.5e-05	0.0	0.0	0.0	0.000171666666667	6.5e-05	0.0	0.0	7.33333333333e-05	0.0	0.0	0.000163333333333	0.0	0.0	0.0	0.0	0.0	0.0	7.66666666667e-05	0.0	0.0	0.0
k__Bacteria;p__Gemmatimonadetes;c__Gemmatimonadetes	0.00589833333333	0.00459166666667	0.00346833333333	0.00281	0.005905	0.00390333333333	0.000293333333333	0.00472666666667	0.00461666666667	0.006175	0.00441	0.002855	0.000185	0.000796666666667	0.000295	0.00143666666667	0.00238166666667	0.000918333333333	0.00313166666667	0.000908333333333	0.00155166666667	0.00442666666667
k__Bacteria;p__NKB19;c__TSBW08	0.000156666666667	8.16666666667e-05	0.0	0.000196666666667	8.83333333333e-05	0.000203333333333	0.00105833333333	0.0	0.000123333333333	0.00024	0.000296666666667	0.000728333333333	0.000565	0.00119166666667	0.000453333333333	0.001005	0.00115666666667	0.00117333333333	0.00127166666667	0.00094	0.0	0.000256666666667
k__Bacteria;p__Nitrospirae;c__Nitrospira	0.0	0.0	0.0	0.0	0.0	0.0	0.0	7e-05	6e-05	0.0	0.0	0.0	0.0	0.0	0.0	0.0	7.66666666667e-05	0.0	0.0	0.0	0.0	0.0
k__Bacteria;p__OD1;Other	0.000778333333333	0.00075	0.000963333333333	0.00102666666667	0.00031	0.000811666666667	0.000625	0.00041	0.00025	0.000711666666667	0.000348333333333	0.000691666666667	0.000116666666667	0.0	0.00061	0.00077	0.000233333333333	0.0	0.000828333333333	0.0	0.00013	0.000378333333333
k__Bacteria;p__OD1;c__	0.0	0.0	8.16666666667e-05	0.0	0.0	6e-05	0.000325	0.00105666666667	0.00111166666667	0.0	8.83333333333e-05	0.0	0.00033	0.0	0.0	0.0	0.00039	0.000316666666667	0.0	0.0	0.0	0.000228333333333
k__Bacteria;p__OD1;c__ABY1	0.00356333333333	0.00465666666667	0.00804666666667	0.006115	0.007725	0.007775	0.00816833333333	0.0164516666667	0.0132466666667	0.00766166666667	0.00609833333333	0.00816	0.00444666666667	0.00262666666667	0.00455666666667	0.0126733333333	0.004905	0.0110933333333	0.00747833333333	0.01699	0.000603333333333	0.00467666666667
k__Bacteria;p__OD1;c__Mb-NB09	0.000246666666667	0.00110333333333	0.001745	0.000246666666667	0.000175	0.00082	0.000198333333333	0.000231666666667	0.000913333333333	0.00054	0.000188333333333	0.000245	0.000161666666667	9.83333333333e-05	0.000145	0.000106666666667	0.0	0.000111666666667	0.00011	5e-05	0.000481666666667	9e-05
k__Bacteria;p__OD1;c__SM2F11	0.01461	0.019565	0.0257316666667	0.03561	0.00764166666667	0.02312	0.0167833333333	0.0120833333333	0.00829	0.0247166666667	0.0214416666667	0.0143016666667	0.00991333333333	0.00247333333333	0.00436833333333	0.00408333333333	0.00486166666667	0.00219666666667	0.016535	0.00973333333333	0.00598666666667	0.0205333333333
k__Bacteria;p__OD1;c__ZB2	0.026025	0.0401483333333	0.0286433333333	0.0326283333333	0.02786	0.02721	0.00397333333333	0.033425	0.045595	0.0290816666667	0.0263716666667	0.00492666666667	0.00563333333333	0.00186666666667	0.003485	0.00441	0.00349666666667	0.00477833333333	0.00348833333333	0.002745	0.0295033333333	0.0157583333333
k__Bacteria;p__OP11;c__OP11-1	0.0	0.0	0.000126666666667	0.0	0.0	0.0	0.0	0.0	0.0	0.0	0.0	0.0	0.0	0.0	0.0	0.0	0.0	9.83333333333e-05	0.0	0.0	0.0	0.0
k__Bacteria;p__OP11;c__OP11-3	0.00015	0.00046	0.000351666666667	0.00136833333333	0.000575	0.000488333333333	0.0	0.000105	0.000768333333333	0.00326333333333	0.001215	5e-05	0.0	0.0	0.000296666666667	0.000105	0.0	0.000173333333333	0.000261666666667	0.000425	4.66666666667e-05	0.000566666666667
k__Bacteria;p__OP11;c__WCHB1-64	0.0	0.0	0.0	6.83333333333e-05	0.0001	0.0	0.0	0.0	0.0	0.000863333333333	0.0	0.0	0.0	0.0	0.0	0.00011	0.0	0.0	0.000101666666667	0.0	0.0	0.000253333333333
k__Bacteria;p__OP3;c__koll11	0.0	8.5e-05	0.000353333333333	0.0	0.00019	6.83333333333e-05	0.00022	0.0	0.0	0.00031	0.0	0.0	0.000323333333333	0.000326666666667	0.0	0.000245	0.0	4.66666666667e-05	0.000248333333333	0.0	0.0	0.0
k__Bacteria;p__Planctomycetes;Other	9e-05	8.16666666667e-05	7.5e-05	0.00021	9e-05	0.000223333333333	0.0	4.16666666667e-05	0.0	0.000178333333333	0.0	0.000118333333333	0.0	0.00011	0.0	0.0	8.5e-05	0.0	0.0	0.0	0.0	0.000166666666667
k__Bacteria;p__Planctomycetes;c__BD7-11	0.0	9.33333333333e-05	7.33333333333e-05	0.0	9.66666666667e-05	0.0	0.000298333333333	4.5e-05	5.5e-05	0.000155	0.0	6e-05	0.00143	0.000225	0.0	0.000313333333333	0.000518333333333	0.000158333333333	0.00151666666667	0.000223333333333	5.66666666667e-05	0.0
k__Bacteria;p__Planctomycetes;c__Phycisphaerae	0.00328	0.004925	0.00550833333333	0.003	0.00287	0.00293833333333	0.007275	0.00768	0.005945	0.00431833333333	0.00520666666667	0.0148266666667	0.0103983333333	0.0116166666667	0.00649	0.00911333333333	0.014575	0.00597666666667	0.01146	0.005555	0.00118	0.002575
k__Bacteria;p__Planctomycetes;c__Planctomycetia	0.0147433333333	0.01623	0.013345	0.0134233333333	0.01231	0.01754	0.001005	0.0201366666667	0.018585	0.0221066666667	0.015015	0.00527666666667	0.00663666666667	0.00385666666667	0.003005	0.00278333333333	0.00629166666667	0.005735	0.008475	0.00389833333333	0.00743	0.0138883333333
k__Bacteria;p__Planctomycetes;c__vadinHA49	0.00022	0.00211	0.001335	0.000418333333333	0.00330833333333	0.000916666666667	0.000308333333333	0.000841666666667	0.00128833333333	0.00103333333333	0.000475	0.00023	0.000925	0.000325	0.000153333333333	0.001125	0.00045	0.000245	7.83333333333e-05	0.000263333333333	0.00136166666667	0.00268666666667
k__Bacteria;p__Proteobacteria;Other	0.00288833333333	0.004325	0.00507833333333	0.00532	0.00406333333333	0.00269833333333	0.00369833333333	0.00552	0.00302333333333	0.00513	0.003245	0.00367666666667	0.00328	0.00258833333333	0.00721833333333	0.00498333333333	0.00312333333333	0.00129666666667	0.0022	0.000473333333333	3.83333333333e-05	0.00446166666667
k__Bacteria;p__Proteobacteria;c__Alphaproteobacteria	0.220756666667	0.22632	0.197748333333	0.231373333333	0.217751666667	0.213086666667	0.286233333333	0.160666666667	0.162246666667	0.205321666667	0.190118333333	0.276715	0.217335	0.246315	0.267871666667	0.28476	0.1954	0.250015	0.230548333333	0.180735	0.123068333333	0.19366
k__Bacteria;p__Proteobacteria;c__Betaproteobacteria	0.15156	0.222468333333	0.214746666667	0.172268333333	0.193783333333	0.21131	0.0863933333333	0.117435	0.126655	0.161901666667	0.177216666667	0.0502683333333	0.19592	0.248215	0.178201666667	0.115948333333	0.0824333333333	0.078995	0.0660533333333	0.107628333333	0.217835	0.199795
k__Bacteria;p__Proteobacteria;c__Deltaproteobacteria	0.009095	0.0103866666667	0.0122416666667	0.00940166666667	0.0109866666667	0.00961833333333	0.0503683333333	0.0111166666667	0.0121666666667	0.0137833333333	0.00986166666667	0.067715	0.0499033333333	0.0610233333333	0.0376783333333	0.079185	0.0560466666667	0.05458	0.06283	0.04048	0.0138283333333	0.0148283333333
k__Bacteria;p__Proteobacteria;c__Gammaproteobacteria	0.0728433333333	0.0624316666667	0.05734	0.07003	0.0797883333333	0.0596533333333	0.0391466666667	0.0814933333333	0.06846	0.0647433333333	0.0754783333333	0.0321766666667	0.07393	0.0865	0.0766133333333	0.030445	0.0478733333333	0.057465	0.023415	0.0829533333333	0.118055	0.0539566666667
k__Bacteria;p__Spirochaetes;c__Spirochaetes	0.000101666666667	6.16666666667e-05	7.33333333333e-05	0.000123333333333	0.00019	0.000118333333333	0.0	5.33333333333e-05	0.0	0.000158333333333	8e-05	0.0	0.0	0.000126666666667	0.0	0.0	0.000168333333333	6.66666666667e-05	0.0	9.66666666667e-05	0.000168333333333	0.0
k__Bacteria;p__TM6;Other	7.5e-05	0.0	0.00014	0.0	9.83333333333e-05	0.0	0.00042	0.0	0.0	0.0	9.16666666667e-05	0.0	5.83333333333e-05	0.0	0.0	0.0	0.0	0.0	8.83333333333e-05	0.0	0.0	6.33333333333e-05
k__Bacteria;p__TM6;c__F38	0.0	0.0	0.0	0.0	0.0	0.0	0.0001	0.0	0.000106666666667	0.0	0.0	0.0	0.0	0.0	0.0	0.0	0.0	0.000168333333333	0.0	0.0	0.0	0.0
k__Bacteria;p__TM6;c__SBRH58	0.000241666666667	0.0	0.00024	0.0	0.000276666666667	0.000191666666667	0.00239666666667	0.000115	0.000236666666667	0.0	0.0	0.000473333333333	6.5e-05	8.5e-05	0.0	0.0	0.0	0.000275	0.0	0.0	0.000511666666667	0.000251666666667
k__Bacteria;p__TM6;c__SJA-4	0.003595	0.00254833333333	0.003535	0.0115866666667	0.00313666666667	0.001985	0.0219133333333	0.01432	0.00478833333333	0.00433333333333	0.00469	0.00375833333333	0.00371833333333	0.00137166666667	0.00766666666667	0.00186166666667	0.00635333333333	0.00502666666667	0.00365333333333	0.0129683333333	0.00744166666667	0.00693
k__Bacteria;p__TM7;Other	0.000413333333333	0.0	0.000395	0.000173333333333	8.83333333333e-05	0.0	0.0	5.33333333333e-05	0.0	4.5e-05	9.5e-05	0.0	0.0	0.0	0.000151666666667	0.0	0.0	0.0	0.0	0.0	0.0	0.000151666666667
k__Bacteria;p__TM7;c__SC3	0.0137116666667	0.00929833333333	0.00936	0.0114166666667	0.0106266666667	0.00691833333333	0.000408333333333	0.0121616666667	0.009645	0.00934	0.010315	0.000631666666667	0.000306666666667	0.000315	0.000156666666667	0.000908333333333	0.00103333333333	0.000951666666667	0.00105666666667	0.00132833333333	0.00244333333333	0.00739166666667
k__Bacteria;p__TM7;c__TM7-1	0.0527216666667	0.027695	0.0301116666667	0.04321	0.0246866666667	0.0326183333333	0.00221666666667	0.01165	0.022495	0.0230833333333	0.0252566666667	0.00321833333333	0.00127333333333	0.000561666666667	0.001815	0.00136333333333	0.00188333333333	0.00237166666667	0.00311333333333	0.00396666666667	0.0192533333333	0.021685
k__Bacteria;p__TM7;c__TM7-3	0.00137333333333	0.00204666666667	0.00224666666667	0.000551666666667	0.00101333333333	0.00149666666667	0.000318333333333	0.00198333333333	0.00262666666667	0.00169	0.00137833333333	0.000631666666667	0.000458333333333	0.0	0.000306666666667	0.000113333333333	0.000493333333333	0.00128333333333	0.000463333333333	0.000465	0.001905	0.001915
k__Bacteria;p__Verrucomicrobia;Other	0.000788333333333	0.000606666666667	0.000628333333333	0.000505	0.000481666666667	0.000353333333333	0.00093	5.66666666667e-05	0.0005	0.000491666666667	0.000175	0.000651666666667	0.000391666666667	0.000116666666667	0.000303333333333	0.000975	0.000305	0.0	0.000741666666667	4.66666666667e-05	0.0	0.000536666666667
k__Bacteria;p__Verrucomicrobia;c__Opitutae	0.01132	0.0119716666667	0.0182933333333	0.0111383333333	0.0138683333333	0.017625	0.0127516666667	0.024975	0.0187766666667	0.0188233333333	0.0110116666667	0.0149833333333	0.00544166666667	0.00517166666667	0.00591166666667	0.0106083333333	0.02539	0.0323533333333	0.0268116666667	0.0157066666667	0.0167383333333	0.0169116666667
k__Bacteria;p__Verrucomicrobia;c__Verrucomicrobiae	0.00109833333333	0.00151166666667	0.000975	0.00209166666667	0.002925	0.00115666666667	0.00563666666667	0.00155	0.00164833333333	0.00213833333333	0.00416833333333	0.00262166666667	0.00287333333333	0.001165	0.003465	0.00469	0.00378833333333	0.00495333333333	0.00562333333333	0.00569	0.00353833333333	0.003355
k__Bacteria;p__Verrucomicrobia;c__[Methylacidiphilae]	0.000723333333333	0.000913333333333	0.000296666666667	0.000386666666667	0.000831666666667	0.00111666666667	0.000408333333333	0.000558333333333	0.000881666666667	0.000871666666667	0.000371666666667	0.000558333333333	0.00221666666667	0.000216666666667	0.00106166666667	0.000785	0.00106333333333	0.000251666666667	0.000968333333333	0.00031	0.00154666666667	0.000436666666667
k__Bacteria;p__Verrucomicrobia;c__[Pedosphaerae]	0.0395183333333	0.0317866666667	0.0302416666667	0.0414816666667	0.0504816666667	0.0410483333333	0.0529366666667	0.0450166666667	0.0396466666667	0.0524633333333	0.049915	0.0594666666667	0.04015	0.0269616666667	0.0516416666667	0.069275	0.062005	0.0493366666667	0.0700583333333	0.0448166666667	0.0308783333333	0.0508283333333
k__Bacteria;p__Verrucomicrobia;c__[Spartobacteria]	0.004285	0.00433833333333	0.01042	0.003735	0.0076	0.004	0.0204766666667	0.00595	0.00580166666667	0.00653666666667	0.00556833333333	0.0337966666667	0.0149833333333	0.017015	0.0102383333333	0.0277266666667	0.0156516666667	0.0160383333333	0.01391	0.010065	0.004555	0.00625166666667
k__Bacteria;p__WPS-2;c__	0.00561333333333	0.003265	0.003365	0.00300166666667	0.005	0.004025	0.00189833333333	0.00321166666667	0.00198166666667	0.00221833333333	0.00358666666667	0.00447	0.00147833333333	0.002085	0.00363833333333	0.00281666666667	0.002925	0.00223666666667	0.005695	0.002695	0.00126166666667	0.00299666666667
k__Bacteria;p__WS6;c__	0.0	0.0	0.0	0.0	0.0	6.33333333333e-05	0.0	0.000295	0.0	0.0	0.0	0.0	5.5e-05	0.0	0.0	0.0	8e-05	0.0	0.0	0.0	0.0	0.0
