OTU_Id	X101	X102	X105	X106	X124	X125	X14	X141	X142	X144	X163	X21	X22	X25	X26	X44	X61	X62	X64	X71	X90	X94
k__Archaea;p__Euryarchaeota	0.0	0.0	0.0	0.0	0.0	0.0	0.0	0.0	0.0	9.33333333333e-05	0.0	0.0	0.0	0.0	0.0	0.0	0.0	0.0	0.000155	0.0	0.0	7.33333333333e-05
k__Bacteria;Other	0.0112116666667	0.00814166666667	0.012435	0.0131533333333	0.00973166666667	0.00919166666667	0.00950333333333	0.00758166666667	0.0100916666667	0.01029	0.00869833333333	0.00931166666667	0.00662333333333	0.00353833333333	0.0124916666667	0.00838	0.00528666666667	0.001635	0.01108	0.00211	0.000113333333333	0.00922
k__Bacteria;p__AD3	0.000473333333333	0.000426666666667	0.000155	7e-05	0.000395	0.000426666666667	0.000218333333333	0.000978333333333	0.0005	0.000146666666667	0.00038	0.000711666666667	0.000416666666667	0.000105	0.0	0.000206666666667	0.00169833333333	0.001305	0.000178333333333	0.000118333333333	0.0	0.000181666666667
k__Bacteria;p__Acidobacteria	0.0561266666667	0.0565916666667	0.0688666666667	0.0621133333333	0.0772616666667	0.07375	0.0628716666667	0.110226666667	0.0934616666667	0.08789	0.0729166666667	0.0604333333333	0.079025	0.123973333333	0.105301666667	0.10743	0.137273333333	0.0967833333333	0.11428	0.0560333333333	0.0434233333333	0.0608333333333
k__Bacteria;p__Actinobacteria	0.0991433333333	0.0767566666667	0.0729716666667	0.0572416666667	0.075195	0.0730016666667	0.00833333333333	0.0709	0.0766783333333	0.0757816666667	0.0837166666667	0.0279166666667	0.01132	0.0165266666667	0.0140683333333	0.0147383333333	0.0279466666667	0.024315	0.0353283333333	0.01858	0.0345466666667	0.084035
k__Bacteria;p__Armatimonadetes	0.00107166666667	0.00176666666667	0.00207666666667	0.000983333333333	0.000976666666667	0.00218	0.0121466666667	0.00530166666667	0.003075	0.00307833333333	0.00127833333333	0.00867333333333	0.00786833333333	0.007515	0.00543666666667	0.00842333333333	0.0231266666667	0.0100533333333	0.01243	0.00867333333333	0.002165	0.00220833333333
k__Bacteria;p__BRC1	0.000161666666667	5.5e-05	0.0	5e-05	0.0001	0.0	0.0	0.0	0.0	6.66666666667e-05	0.0	6.83333333333e-05	0.000155	9.33333333333e-05	0.0	0.0	7.83333333333e-05	5.33333333333e-05	7.83333333333e-05	8.66666666667e-05	0.0	0.0
k__Bacteria;p__Bacteroidetes	0.0945766666667	0.104288333333	0.119626666667	0.115186666667	0.100591666667	0.119585	0.225776666667	0.176626666667	0.184223333333	0.101486666667	0.10886	0.23825	0.203935	0.0993366666667	0.154831666667	0.143145	0.20484	0.221356666667	0.19963	0.280823333333	0.215183333333	0.159656666667
k__Bacteria;p__Chlamydiae	0.0540133333333	0.00717	0.0157	0.0104416666667	0.0111683333333	0.0104216666667	0.006605	0.00906833333333	0.029495	0.0212566666667	0.036745	0.0099	0.00998166666667	0.00247166666667	0.00286666666667	0.00656833333333	0.01453	0.0229816666667	0.0152233333333	0.035875	0.0162016666667	0.00670833333333
k__Bacteria;p__Chlorobi	0.0103333333333	0.00448166666667	0.00727	0.0128866666667	0.00668333333333	0.00628166666667	0.00645666666667	0.00598833333333	0.0084	0.006915	0.01382	0.00879833333333	0.00285666666667	0.00411	0.00606833333333	0.00538	0.00687	0.00753333333333	0.00711	0.0134316666667	0.0137266666667	0.00555
k__Bacteria;p__Chloroflexi	0.00266	0.002875	0.00303666666667	0.00175	0.00232	0.002505	0.005605	0.00529666666667	0.002595	0.00515166666667	0.00301666666667	0.00348333333333	0.004325	0.00338833333333	0.00363	0.00448333333333	0.01236	0.00429	0.0100333333333	0.00487166666667	0.000228333333333	0.00210666666667
k__Bacteria;p__Cyanobacteria	0.00225166666667	0.0129216666667	0.000936666666667	0.00176333333333	0.00981333333333	0.00114333333333	0.0100066666667	0.000971666666667	0.0006	0.00201666666667	0.0025	0.00502833333333	0.009215	0.00378166666667	0.004075	0.00791	0.006335	0.00596	0.00732333333333	0.009205	0.0544	0.00582166666667
k__Bacteria;p__Elusimicrobia	0.00210666666667	0.00144166666667	0.00262166666667	0.00184	0.00166166666667	0.00174166666667	0.003315	0.001615	0.0013	0.00169	0.00173	0.003395	0.00328	0.00308833333333	0.004695	0.00552833333333	0.000963333333333	0.00175666666667	0.00110333333333	0.00450166666667	0.000713333333333	0.000495
k__Bacteria;p__FBP	0.00140166666667	0.00109166666667	0.00138333333333	0.00166333333333	0.00200833333333	0.00119166666667	0.014615	0.00144166666667	0.00156	0.00132166666667	0.001635	0.0119833333333	0.00295333333333	0.00300666666667	0.004835	0.00996833333333	0.00575	0.00716666666667	0.00837333333333	0.007725	0.000931666666667	0.00181333333333
k__Bacteria;p__FCPU426	0.000525	0.00065	0.00121333333333	0.000725	0.000658333333333	0.000181666666667	0.000645	0.002085	0.000761666666667	0.00117	0.00045	0.00272833333333	0.001115	0.00172666666667	0.00166333333333	0.000761666666667	0.00424166666667	0.00225166666667	0.00377833333333	0.00146666666667	0.000283333333333	0.000556666666667
k__Bacteria;p__Fibrobacteres	0.00031	0.000543333333333	0.000221666666667	0.000751666666667	0.00059	0.000513333333333	0.00248333333333	0.00240333333333	0.000998333333333	0.000776666666667	0.00165	9e-05	0.000113333333333	0.00118333333333	0.000888333333333	0.00091	0.00161333333333	0.000698333333333	0.00048	0.00173666666667	0.0022	0.00283333333333
k__Bacteria;p__Firmicutes	0.000488333333333	0.000373333333333	0.000146666666667	0.0	0.000478333333333	0.000178333333333	9.5e-05	0.00016	0.000231666666667	0.000538333333333	0.000355	0.000181666666667	0.000195	0.00035	0.000151666666667	0.000106666666667	0.000235	0.000173333333333	0.000245	0.000666666666667	0.000333333333333	0.000326666666667
k__Bacteria;p__GN02	0.000325	0.00315333333333	0.00357	0.004345	0.002995	0.00216333333333	0.00214	0.00354166666667	0.00298	0.00542	0.00821666666667	0.00033	0.00171833333333	0.00035	0.00119833333333	0.001335	0.00111666666667	0.000868333333333	0.000576666666667	0.00188166666667	0.00401333333333	0.00402333333333
k__Bacteria;p__Gemmatimonadetes	0.00623333333333	0.00500666666667	0.00391166666667	0.00292833333333	0.00635333333333	0.004285	0.000293333333333	0.00505333333333	0.00513	0.00665666666667	0.00466333333333	0.00328833333333	0.000185	0.000905	0.000295	0.00143666666667	0.00267833333333	0.00105	0.00351	0.000965	0.00169	0.00509166666667
k__Bacteria;p__NKB19	0.000156666666667	8.16666666667e-05	0.0	0.000196666666667	8.83333333333e-05	0.000203333333333	0.00105833333333	0.0	0.000123333333333	0.00024	0.000296666666667	0.000728333333333	0.000565	0.00119166666667	0.000453333333333	0.001005	0.00115666666667	0.00117333333333	0.00127166666667	0.00094	0.0	0.000256666666667
k__Bacteria;p__Nitrospirae	0.0	0.0	0.0	0.0	0.0	0.0	0.0	7e-05	6e-05	0.0	0.0	0.0	0.0	0.0	0.0	0.0	7.66666666667e-05	0.0	0.0	0.0	0.0	0.0
k__Bacteria;p__OD1	0.0452233333333	0.0662233333333	0.0652116666667	0.0756266666667	0.0437116666667	0.0597966666667	0.0300733333333	0.0636583333333	0.0694066666667	0.0627116666667	0.0545366666667	0.028325	0.0206016666667	0.007065	0.013165	0.0220433333333	0.0138866666667	0.0184966666667	0.02844	0.0295183333333	0.036705	0.041665
k__Bacteria;p__OP11	0.00015	0.00046	0.000478333333333	0.00143666666667	0.000675	0.000488333333333	0.0	0.000105	0.000768333333333	0.00412666666667	0.001215	5e-05	0.0	0.0	0.000296666666667	0.000215	0.0	0.000271666666667	0.000363333333333	0.000425	4.66666666667e-05	0.00082
k__Bacteria;p__OP3	0.0	8.5e-05	0.000353333333333	0.0	0.00019	6.83333333333e-05	0.00022	0.0	0.0	0.00031	0.0	0.0	0.000323333333333	0.000326666666667	0.0	0.000245	0.0	4.66666666667e-05	0.000248333333333	0.0	0.0	0.0
k__Bacteria;p__Planctomycetes	0.0183333333333	0.02344	0.0203366666667	0.0170516666667	0.018675	0.0216183333333	0.00888666666667	0.028745	0.0258733333333	0.0277916666667	0.0206966666667	0.0205116666667	0.01939	0.0161333333333	0.00964833333333	0.013335	0.02192	0.012115	0.02153	0.00994	0.0100283333333	0.0193166666667
k__Bacteria;p__Proteobacteria	0.457143333333	0.525931666667	0.487155	0.488393333333	0.506373333333	0.496366666667	0.46584	0.376231666667	0.372551666667	0.45088	0.45592	0.430551666667	0.540368333333	0.644641666667	0.567583333333	0.515321666667	0.384876666667	0.442351666667	0.385046666667	0.41227	0.472825	0.466701666667
k__Bacteria;p__Spirochaetes	0.000101666666667	6.16666666667e-05	7.33333333333e-05	0.000123333333333	0.00019	0.000118333333333	0.0	5.33333333333e-05	0.0	0.000158333333333	8e-05	0.0	0.0	0.000126666666667	0.0	0.0	0.000168333333333	6.66666666667e-05	0.0	9.66666666667e-05	0.000168333333333	0.0
k__Bacteria;p__TM6	0.00391166666667	0.00254833333333	0.003915	0.0115866666667	0.00351166666667	0.00217666666667	0.02483	0.014435	0.00513166666667	0.00433333333333	0.00478166666667	0.00423166666667	0.00384166666667	0.00145666666667	0.00766666666667	0.00186166666667	0.00635333333333	0.00547	0.00374166666667	0.0129683333333	0.00795333333333	0.007245
k__Bacteria;p__TM7	0.06822	0.03904	0.0421133333333	0.0553516666667	0.036415	0.0410333333333	0.00294333333333	0.0258483333333	0.0347666666667	0.0341583333333	0.037045	0.00448166666667	0.00203833333333	0.000876666666667	0.00243	0.002385	0.00341	0.00460666666667	0.00463333333333	0.00576	0.0236016666667	0.0311433333333
k__Bacteria;p__Verrucomicrobia	0.0577333333333	0.0511283333333	0.060855	0.0593383333333	0.0761883333333	0.0653	0.09314	0.0781066666667	0.067255	0.081325	0.07121	0.112078333333	0.0660566666667	0.0506466666667	0.0726216666667	0.11406	0.108203333333	0.102933333333	0.118113333333	0.076635	0.0572566666667	0.07832
k__Bacteria;p__WPS-2	0.00561333333333	0.003265	0.003365	0.00300166666667	0.005	0.004025	0.00189833333333	0.00321166666667	0.00198166666667	0.00221833333333	0.00358666666667	0.00447	0.00147833333333	0.002085	0.00363833333333	0.00281666666667	0.002925	0.00223666666667	0.005695	0.002695	0.00126166666667	0.00299666666667
k__Bacteria;p__WS6	0.0	0.0	0.0	0.0	0.0	6.33333333333e-05	0.0	0.000295	0.0	0.0	0.0	0.0	5.5e-05	0.0	0.0	0.0	8e-05	0.0	0.0	0.0	0.0	0.0
