SampleID	BarcodeSequence	LinkerPrimerSequence	ID_unique_extraction	Xname	Experiment	Former_sample_designation	Treatment	Side	Block	Side_group	NucAc	Description
10			430_R	X10		M6PF	M	PF	6	PF	RNA	430_R
14			434_R	X14		M4PF	M	PF	4	PF	RNA	434_R
21			441_R	X21		S6PF	S	PF	6	PF	RNA	441_R
22			442_R	X22		S8PF	S	PF	8	PF	RNA	442_R
25			445_R	X25		M8PF	M	PF	8	PF	RNA	445_R
26			446_R	X26		S4PF	S	PF	4	PF	RNA	446_R
44			464_R	X44		M3PF	M	PF	3	PF	RNA	464_R
45			465_R	X45		S2PF	S	PF	2	PF	RNA	465_R
61			481_R	X61		S1PF	S	PF	1	PF	RNA	481_R
62			482_R	X62		M1PF	M	PF	1	PF	RNA	482_R
64			484_R	X64		M2PF	M	PF	2	PF	RNA	484_R
71			503_R	X71		S3PF	S	PF	3	PF	RNA	503_R
90			430	X90		M6PF	M	PF	6	PF	DNA	430
94			434	X94		M4PF	M	PF	4	PF	DNA	434
101			441	X101		S6PF	S	PF	6	PF	DNA	441
102			442	X102		S8PF	S	PF	8	PF	DNA	442
105			445	X105		M8PF	M	PF	8	PF	DNA	445
106			446	X106		S4PF	S	PF	4	PF	DNA	446
124			464	X124		M3PF	M	PF	3	PF	DNA	464
125			465	X125		S2PF	S	PF	2	PF	DNA	465
141			481	X141		S1PF	S	PF	1	PF	DNA	481
142			482	X142		M1PF	M	PF	1	PF	DNA	482
144			484	X144		M2PF	M	PF	2	PF	DNA	484
163			503	X163		S3PF	S	PF	3	PF	DNA	503
